## Interface: 80205
## Author: cqwrteur
## Title: Raider.IO LOD Database TW Alliance Raid
## Version: @project-version@
## LoadOnDemand: 1
## X-RAIDER-IO-LOD: 4
## X-RAIDER-IO-LOD-FACTION: Alliance

db/db_raiding_tw_alliance_characters.lua
db/db_raiding_tw_alliance_lookup.lua
